<svg width="313" height="78" viewBox="0 0 313 78" fill="none" xmlns="http://www.w3.org/2000/svg">
<g clip-path="url(#clip0)">
<path d="M12.081 30.2817H2.76665V42.7195H0V9.42725H10.7899C17.2454 9.42725 22.1332 14.1031 22.1332 19.8077C22.1332 24.203 19.1821 28.2243 14.571 29.5335L22.3176 42.626H19.2743L12.081 30.2817ZM2.76665 11.7652V27.8502H10.5133C15.7699 27.8502 19.3665 24.016 19.3665 19.8077C19.3665 15.3189 15.7699 11.8587 10.6055 11.8587H2.76665V11.7652Z" fill="#222222"/>
<path d="M28.1279 9.42688H49.2467V11.9519H30.8946V24.7638H49.2467V27.1952H30.8946V40.1006H49.2467V42.6256H28.1279V9.42688Z" fill="#222222"/>
<path d="M54.041 26.4468C54.041 16.534 61.7876 9.33313 71.7476 9.33313C78.2031 9.33313 83.8286 12.6062 86.8719 17.5627L81.2464 21.0228C79.2175 17.5627 76.1742 15.4118 71.7476 15.4118C65.1998 15.4118 60.4043 20.1812 60.4043 26.3533C60.4043 32.432 65.1998 37.2014 71.5631 37.2014C76.3586 37.2014 79.6786 34.5829 81.523 30.9357L87.333 33.9282C84.2897 39.5393 78.572 43.3735 71.7476 43.3735C61.1421 43.5606 54.041 35.8921 54.041 26.4468Z" fill="white"/>
<path d="M88.9014 26.4468C88.9014 17.0016 96.7402 9.33313 106.516 9.33313C116.383 9.33313 124.222 17.0016 124.222 26.4468C124.222 35.8921 116.383 43.5605 106.516 43.5605C96.7402 43.5605 88.9014 35.8921 88.9014 26.4468ZM117.767 26.4468C117.767 20.3682 112.787 15.5053 106.516 15.5053C100.245 15.5053 95.2647 20.4617 95.2647 26.4468C95.2647 32.5255 100.245 37.3884 106.516 37.3884C112.787 37.3884 117.767 32.5255 117.767 26.4468Z" fill="white"/>
<path d="M127.082 9.8009H134.368L149.307 32.4322V9.8009H155.763V43.0932H148.939L133.63 19.7138V43.0932H127.174V9.8009H127.082Z" fill="white"/>
<path d="M159.727 9.80081H180.2V15.6924H166.182V23.3609H180.2V29.2525H166.182V37.2014H180.2V43.093H159.727V9.80081ZM172.73 -0.205566H178.724L171.531 7.55639H167.197L172.73 -0.205566Z" fill="white"/>
<path d="M183.059 26.4468C183.059 16.534 190.805 9.33313 200.765 9.33313C207.221 9.33313 212.846 12.6062 215.889 17.5627L210.264 21.0228C208.235 17.5627 205.192 15.4118 200.765 15.4118C194.217 15.4118 189.422 20.1812 189.422 26.3533C189.422 32.432 194.217 37.2014 200.581 37.2014C205.376 37.2014 208.696 34.5829 210.541 30.9357L216.443 33.9282C213.399 39.5393 207.682 43.3735 200.765 43.3735C190.067 43.5606 183.059 35.8921 183.059 26.4468Z" fill="white"/>
<path d="M226.126 15.7856H216.904V9.89404H241.804V15.7856H232.582V43.0928H226.126V15.7856Z" fill="white"/>
<path d="M249.827 9.8009H256.282L268.548 43.0932H261.908L259.787 37.2015H246.415L244.294 43.0932H237.562L249.827 9.8009ZM248.536 31.2164H257.574L253.055 18.5916L248.536 31.2164Z" fill="white"/>
<path d="M273.621 15.7856H264.398V9.89404H289.298V15.7856H280.076V43.0928H273.621V15.7856Z" fill="white"/>
<path d="M292.525 9.8009H312.999V15.6925H298.981V23.3609H312.999V29.2526H298.981V37.2015H312.999V43.0932H292.525V9.8009Z" fill="white"/>
<path d="M104.089 57.7091C104.089 54.1721 107.118 51.2866 110.789 51.2866C113.268 51.2866 115.379 52.5897 116.48 54.4513L115.562 54.9167C114.645 53.3344 112.809 52.2174 110.698 52.2174C107.485 52.2174 105.099 54.7305 105.099 57.7091C105.099 60.6876 107.577 63.2007 110.698 63.2007C112.992 63.2007 114.736 61.9907 115.654 60.3153L116.572 60.7807C115.471 62.8284 113.268 64.1315 110.698 64.1315C107.118 64.1315 104.089 61.2461 104.089 57.7091Z" fill="white"/>
<path d="M118.317 57.7091C118.317 54.1721 121.346 51.2866 125.018 51.2866C128.69 51.2866 131.719 54.1721 131.719 57.7091C131.719 61.246 128.69 64.1315 125.018 64.1315C121.346 64.1315 118.317 61.246 118.317 57.7091ZM130.525 57.7091C130.525 54.7305 128.047 52.2174 124.926 52.2174C121.805 52.2174 119.327 54.7305 119.327 57.7091C119.327 60.6876 121.805 63.2007 124.926 63.2007C128.047 63.2007 130.525 60.7807 130.525 57.7091Z" fill="white"/>
<path d="M133.92 51.4724H135.021L143.374 62.4557V51.4724H144.384V64.038H143.282L134.93 52.9617V64.038H133.92V51.4724Z" fill="white"/>
<path d="M155.216 52.4032H151.178V51.4724H160.357V52.4032H156.318V64.038H155.308V52.4032H155.216Z" fill="white"/>
<path d="M162.375 59.9426V51.4724H163.385V59.9426C163.385 61.7111 164.853 63.2003 166.781 63.2003C168.708 63.2003 170.177 61.7111 170.177 59.9426V51.4724H171.187V59.9426C171.187 62.3626 169.259 64.2242 166.781 64.2242C164.303 64.2242 162.375 62.2695 162.375 59.9426Z" fill="white"/>
<path d="M180.364 56.0334H185.504V58.5465C186.881 56.778 189.084 55.568 191.838 55.568C195.326 55.568 197.712 56.9642 199.089 59.2911C200.65 57.0573 203.22 55.568 206.432 55.568C212.399 55.568 215.519 59.0119 215.519 64.5966V77.5346H210.196V64.9689C210.196 61.8043 208.543 59.8496 205.331 59.8496C202.577 59.8496 200.466 61.7112 200.466 65.4343V77.4415H195.234V64.8759C195.234 61.8043 193.674 59.9427 190.553 59.9427C187.707 59.9427 185.504 61.8973 185.504 65.7136V77.6277H180.364V56.0334Z" fill="white"/>
<path d="M238.375 77.5345H233.235V75.1145C231.858 76.883 229.655 77.9999 226.81 77.9999C221.578 77.9999 218.273 74.556 218.273 68.7851V56.0333H223.505V68.2266C223.505 71.4844 225.066 73.6252 228.278 73.6252C231.124 73.6252 233.235 71.5775 233.235 67.7613V56.0333H238.375V77.5345Z" fill="white"/>
<path d="M241.588 56.0334H246.728V58.6396C248.197 56.778 250.491 55.568 253.429 55.568C258.936 55.568 262.24 59.0119 262.24 64.7828V77.5346H257.008V65.3413C257.008 62.0835 255.356 59.9427 251.96 59.9427C249.023 59.9427 246.728 61.9904 246.728 65.8066V77.6277H241.588V56.0334Z" fill="white"/>
<path d="M264.352 66.8304C264.352 59.6633 269.767 55.6609 275.366 55.6609C278.212 55.6609 280.874 56.7778 282.434 58.6394V50.4485H287.574V77.6275H282.434V74.8351C280.782 76.7898 278.12 78.0929 275.183 78.0929C269.951 77.9998 264.352 73.8113 264.352 66.8304ZM282.801 66.7373C282.801 63.1072 279.956 60.1287 276.101 60.1287C272.337 60.1287 269.4 63.0141 269.4 66.7373C269.4 70.4604 272.337 73.4389 276.101 73.4389C279.956 73.4389 282.801 70.4604 282.801 66.7373Z" fill="white"/>
<path d="M289.869 66.8302C289.869 60.5939 295.009 55.6608 301.435 55.6608C307.86 55.6608 313 60.5939 313 66.8302C313 73.0665 307.86 77.9997 301.435 77.9997C295.009 77.9997 289.869 72.9734 289.869 66.8302ZM307.86 66.8302C307.86 63.2002 305.014 60.3147 301.435 60.3147C297.763 60.3147 295.009 63.2932 295.009 66.8302C295.009 70.3672 297.763 73.3457 301.435 73.3457C305.014 73.2527 307.86 70.3672 307.86 66.8302Z" fill="white"/>
</g>
<defs>
<clipPath id="clip0">
<rect width="313" height="78" fill="white"/>
</clipPath>
</defs>
</svg>
