<?xml version="1.0" encoding="utf-8"?>
<!-- Generator: Adobe Illustrator 21.1.0, SVG Export Plug-In . SVG Version: 6.00 Build 0)  -->
<svg version="1.1" id="Layer_1" xmlns="http://www.w3.org/2000/svg" xmlns:xlink="http://www.w3.org/1999/xlink" x="0px" y="0px"
	 viewBox="0 0 26 20" style="enable-background:new 0 0 26 20;" xml:space="preserve">
<style type="text/css">
	.st0{fill:#070404;}
</style>
<g>
	<rect class="st0" width="26" height="2.4"/>
	<rect y="8.8" class="st0" width="26" height="2.4"/>
	<rect y="17.6" class="st0" width="26" height="2.4"/>
</g>
</svg>
