<?xml version="1.0" encoding="utf-8"?>
<!-- Generator: Adobe Illustrator 16.0.0, SVG Export Plug-In . SVG Version: 6.00 Build 0)  -->
<!DOCTYPE svg PUBLIC "-//W3C//DTD SVG 1.1//EN" "http://www.w3.org/Graphics/SVG/1.1/DTD/svg11.dtd">
<svg version="1.1" xmlns="http://www.w3.org/2000/svg" xmlns:xlink="http://www.w3.org/1999/xlink" viewBox="0 0 11 11" xml:space="preserve" preserveAspectRatio="XMinYMin meet">
<g>
	<polygon fill="#fff" points="5.944,0 5.944,1.283 8.021,1.283 2.972,6.243 3.734,7.063 8.718,2.079 8.718,4.155 10,4.155 10,0 	
		"/>
	<polygon fill="#fff" points="0,0 0,10 10,10 10,5.449 8.718,5.449 8.718,8.72 1.283,8.72 1.283,1.283 4.553,1.283 4.553,0 	"/>
</g>
</svg>
