<?xml version="1.0" encoding="utf-8"?>
<!-- Generator: Adobe Illustrator 16.0.0, SVG Export Plug-In . SVG Version: 6.00 Build 0)  -->
<!DOCTYPE svg PUBLIC "-//W3C//DTD SVG 1.1//EN" "http://www.w3.org/Graphics/SVG/1.1/DTD/svg11.dtd">
<svg version="1.1" id="레이어_1" xmlns="http://www.w3.org/2000/svg" xmlns:xlink="http://www.w3.org/1999/xlink" x="0px"
	 y="0px" width="16px" height="16px" viewBox="0 0 16 16" enable-background="new 0 0 16 16" xml:space="preserve">
<path fill="#363636" d="M14.044,0H1.956C0.875,0,0,0.879,0,1.964v12.072C0,15.122,0.875,16,1.956,16h12.088
	C15.124,16,16,15.122,16,14.036V1.964C16,0.879,15.124,0,14.044,0 M1.945,1.953H14.04L7.992,7.994L1.945,1.953z M14.043,14.036
	H1.956v-9.23l6.036,6.019l6.051-6.032V14.036z"/>
</svg>
